{
"trace":{
"event":[
{
"model":"trafficSystem.policeman",
"time":0.000000,
"kind":"EX",
"state":{}
},
{
"model":"trafficSystem.trafficlight",
"time":0.000000,
"kind":"EX",
"state":{}
},
{
"model":"trafficSystem.trafficlight",
"time":58.500000,
"kind":"IN",
"outport name":"OBSERVED",
"message":[
"grey"
],
"state":{}
},
{
"model":"trafficSystem.trafficlight",
"time":108.500000,
"kind":"IN",
"outport name":"OBSERVED",
"message":[
"yellow"
],
"state":{}
},
{
"model":"trafficSystem.trafficlight",
"time":118.500000,
"kind":"IN",
"outport name":"OBSERVED",
"message":[
"grey"
],
"state":{}
},
{
"model":"trafficSystem.trafficlight",
"time":178.500000,
"kind":"IN",
"outport name":"OBSERVED",
"message":[
"grey"
],
"state":{}
},
{
"model":"trafficSystem.policeman",
"time":200.000000,
"kind":"IN",
"outport name":"OUT",
"message":[
"toManual"
],
"state":{}
},
{
"model":"trafficSystem.trafficlight",
"time":200.000000,
"kind":"EX",
"inport name":"INTERRUPT",
"message":[
"toManual"
],
"state":{}
},
{
"model":"trafficSystem.policeman",
"time":300.000000,
"kind":"IN",
"outport name":"OUT",
"message":[
"toAutonomous"
],
"state":{}
},
{
"model":"trafficSystem.trafficlight",
"time":300.000000,
"kind":"EX",
"inport name":"INTERRUPT",
"message":[
"toAutonomous"
],
"state":{}
},
{
"model":"trafficSystem.trafficlight",
"time":360.000000,
"kind":"IN",
"outport name":"OBSERVED",
"message":[
"grey"
],
"state":{}
}
]
}
}